Team 5 - Data 624 - Project 2
…
The MARS model is excluded, but all four tree models contribute the the final prediction

Export Predictions

predictions <- predict(final_ensemble, bev_eval)
predictions %>% tibble::enframe(name = NULL) %>% datatable()

predictions %>% tibble::enframe(name = NULL) %>% rownames_to_column() %>% rename(PH = value, row = rowname)

## # A tibble: 267 x 2
##    row      PH
##    <chr> <dbl>
##  1 1      8.53
##  2 2      8.37
##  3 3      8.50
##  4 4      8.57
##  5 5      8.41
##  6 6      8.52
##  7 7      8.47
##  8 8      8.56
##  9 9      8.56
## 10 10     8.63
## # ... with 257 more rows
…
